<?xml version="1.0" encoding="UTF-8" standalone="no"?>
<!-- Created with Inkscape (http://www.inkscape.org/) -->

<svg
   xmlns:dc="http://purl.org/dc/elements/1.1/"
   xmlns:cc="http://creativecommons.org/ns#"
   xmlns:rdf="http://www.w3.org/1999/02/22-rdf-syntax-ns#"
   xmlns:svg="http://www.w3.org/2000/svg"
   xmlns="http://www.w3.org/2000/svg"
   xmlns:sodipodi="http://sodipodi.sourceforge.net/DTD/sodipodi-0.dtd"
   xmlns:inkscape="http://www.inkscape.org/namespaces/inkscape"
   width="200"
   height="200"
   id="svg2"
   version="1.1"
   inkscape:version="0.48.5 r10040"
   sodipodi:docname="syminal.svg"
   inkscape:export-filename="/home/tadni/Syminal/insigna/syminal.png"
   inkscape:export-xdpi="90"
   inkscape:export-ydpi="90">
  <defs
     id="defs4" />
  <sodipodi:namedview
     id="base"
     pagecolor="#ffffff"
     bordercolor="#666666"
     borderopacity="1.0"
     inkscape:pageopacity="0.0"
     inkscape:pageshadow="2"
     inkscape:zoom="2.8"
     inkscape:cx="103.77088"
     inkscape:cy="69.457843"
     inkscape:document-units="px"
     inkscape:current-layer="layer1"
     showgrid="false"
     showguides="true"
     inkscape:guide-bbox="true"
     inkscape:window-width="1364"
     inkscape:window-height="730"
     inkscape:window-x="1"
     inkscape:window-y="1"
     inkscape:window-maximized="0" />
  <metadata
     id="metadata7">
    <rdf:RDF>
      <cc:Work
         rdf:about="">
        <dc:format>image/svg+xml</dc:format>
        <dc:type
           rdf:resource="http://purl.org/dc/dcmitype/StillImage" />
        <dc:title />
      </cc:Work>
    </rdf:RDF>
  </metadata>
  <g
     inkscape:label="Layer 1"
     inkscape:groupmode="layer"
     id="layer1"
     transform="translate(0,-852.36218)">
    <g
       id="g3029">
      <g
         id="g3008">
        <path
           sodipodi:type="arc"
           style="fill:#000000;fill-rule:evenodd;stroke:#000000;stroke-width:1px;stroke-linecap:butt;stroke-linejoin:miter;stroke-opacity:1"
           id="path2985"
           sodipodi:cx="2.5"
           sodipodi:cy="2.8571424"
           sodipodi:rx="119.28571"
           sodipodi:ry="109.64286"
           d="M 121.78571,2.8571424 C 121.78571,63.411222 68.37968,112.5 2.5,112.5 -63.37968,112.5 -116.78571,63.411222 -116.78571,2.8571424 -116.78571,-57.696937 -63.37968,-106.78572 2.5,-106.78572 c 65.87968,0 119.28571,49.088783 119.28571,109.6428624 z"
           transform="matrix(0.75120671,0,0,0.81727372,98.121983,950.02711)" />
        <path
           sodipodi:type="arc"
           style="fill:#ffffff;fill-rule:evenodd;stroke:#000000;stroke-width:1px;stroke-linecap:butt;stroke-linejoin:miter;stroke-opacity:1"
           id="path2985-0"
           sodipodi:cx="2.5"
           sodipodi:cy="2.8571424"
           sodipodi:rx="119.28571"
           sodipodi:ry="109.64286"
           d="M 121.78571,2.8571424 C 121.78571,63.411222 68.37968,112.5 2.5,112.5 -63.37968,112.5 -116.78571,63.411222 -116.78571,2.8571424 -116.78571,-57.696937 -63.37968,-106.78572 2.5,-106.78572 c 65.87968,0 119.28571,49.088783 119.28571,109.6428624 z"
           transform="matrix(0.6677393,0,0,0.72646553,98.330652,950.28656)" />
      </g>
      <g
         id="g3018">
        <text
           xml:space="preserve"
           style="font-size:106.81955719px;font-style:normal;font-weight:normal;line-height:125%;letter-spacing:0px;word-spacing:0px;fill:#000000;fill-opacity:1;stroke:none;font-family:Sans"
           x="-126.26617"
           y="-980.98682"
           id="text3012"
           sodipodi:linespacing="125%"
           transform="matrix(-0.99993307,-0.01066106,0.01066128,-0.99995327,0,0)"><tspan
             sodipodi:role="line"
             id="tspan3014"
             x="-126.26617"
             y="-980.98682"
             style="font-size:72px;font-style:normal;font-variant:normal;font-weight:normal;font-stretch:normal;font-family:DejaVu Sans Mono;-inkscape-font-specification:DejaVu Sans Mono">λ</tspan></text>
        <text
           xml:space="preserve"
           style="font-size:40px;font-style:normal;font-weight:normal;line-height:125%;letter-spacing:0px;word-spacing:0px;fill:#000000;fill-opacity:1;stroke:none;font-family:Sans"
           x="35.511719"
           y="1020.0427"
           id="text3016"
           sodipodi:linespacing="125%"><tspan
             sodipodi:role="line"
             id="tspan3018"
             x="35.511719"
             y="1020.0427"
             style="font-size:72px;font-style:normal;font-variant:normal;font-weight:normal;font-stretch:normal;font-family:DejaVu Sans;-inkscape-font-specification:DejaVu Sans">s</tspan></text>
        <g
           id="g3000"
           transform="translate(0,0.39998188)">
          <text
             sodipodi:linespacing="125%"
             id="text3020"
             y="1020.6622"
             x="114.80869"
             style="font-size:40px;font-style:normal;font-weight:normal;line-height:125%;letter-spacing:0px;word-spacing:0px;fill:#000000;fill-opacity:1;stroke:none;font-family:Sans"
             xml:space="preserve"><tspan
               style="font-size:72px;font-style:normal;font-variant:normal;font-weight:normal;font-stretch:normal;font-family:DejaVu Sans Mono;-inkscape-font-specification:DejaVu Sans Mono"
               y="1020.6622"
               x="114.80869"
               id="tspan3022"
               sodipodi:role="line">m</tspan></text>
          <rect
             y="1018.5221"
             x="118.64072"
             height="15.909903"
             width="5.8699646"
             id="rect3032"
             style="fill:#000000" />
          <rect
             y="1016.3715"
             x="133.677"
             height="15.909903"
             width="5.903079"
             id="rect3032-4"
             style="fill:#000000" />
        </g>
      </g>
    </g>
  </g>
</svg>
